An analysis on bitcoin volatility
…
Now we have the data we need, but our dataframe still has unnecessary columns that clutter up our dataframe.

## selecting only the columns that are necessary to our analysis
bitcoin_data <- bitcoin_data %>% select(name,open,close,high,low,date,volume,market)
bitcoin_data

## # A tibble: 1,793 x 8
##    name     open close  high   low date      volume     market
##    <chr>   <dbl> <dbl> <dbl> <dbl> <chr>      <int>      <dbl>
##  1 Bitcoin 135   134     136 132   4/28/2013      0 1500520000
##  2 Bitcoin 134   145     147 134   4/29/2013      0 1491160000
##  3 Bitcoin 144   139     147 134   4/30/2013      0 1597780000
##  4 Bitcoin 139   117     140 108   5/1/2013       0 1542820000
##  5 Bitcoin 116   105     126  92.3 5/2/2013       0 1292190000
##  6 Bitcoin 106    97.8   108  79.1 5/3/2013       0 1180070000
##  7 Bitcoin  98.1 112     115  92.5 5/4/2013       0 1089890000
##  8 Bitcoin 113   116     119 107   5/5/2013       0 1254760000
##  9 Bitcoin 116   112     125 107   5/6/2013       0 1289470000
## 10 Bitcoin 112   112     113  97.7 5/7/2013       0 1248470000
## # ... with 1,783 more rows

Luckily for us most of the data is already tidy (e.g no missing values) however the format of date is not uniform which can cause a few problems when trying to plot as a graph from there we can just select the columns that are of value to us.

##converting the date to a uniform format so R can recognize it easily
bitcoin_data$date <- as.Date(bitcoin_data$date,"%m/%d/%Y")

##creating a new column in the dataframe called year 
bitcoin_data <- bitcoin_data %>% mutate(year = year(date)) %>%
                 select(name,open,close,high,low,date,year,market,volume)
bitcoin_data

## # A tibble: 1,793 x 9
##    name     open close  high   low date        year     market volume
##    <chr>   <dbl> <dbl> <dbl> <dbl> <date>     <dbl>      <dbl>  <int>
##  1 Bitcoin 135   134     136 132   2013-04-28  2013 1500520000      0
##  2 Bitcoin 134   145     147 134   2013-04-29  2013 1491160000      0
##  3 Bitcoin 144   139     147 134   2013-04-30  2013 1597780000      0
##  4 Bitcoin 139   117     140 108   2013-05-01  2013 1542820000      0
##  5 Bitcoin 116   105     126  92.3 2013-05-02  2013 1292190000      0
##  6 Bitcoin 106    97.8   108  79.1 2013-05-03  2013 1180070000      0
##  7 Bitcoin  98.1 112     115  92.5 2013-05-04  2013 1089890000      0
##  8 Bitcoin 113   116     119 107   2013-05-05  2013 1254760000      0
##  9 Bitcoin 116   112     125 107   2013-05-06  2013 1289470000      0
## 10 Bitcoin 112   112     113  97.7 2013-05-07  2013 1248470000      0
## # ... with 1,783 more rows
…
